Taylor Glass Data Analysis Portfolio - Data Exercise
…
Data Exercise

Option 1: Complex Data Types Analysis

Find text data to analyze

After reading the text mining chapter in the IDS textbook, I learned about Project Gutenberg, which is a digital archive of books that are publicly available. I installed the Gutenbergr package, loaded the library, and searched through some of the options. I chose to analyze Alice’s Adventures in Wonderland which has a Gutenberg ID of 11. I downloaded it from Project Gutennberg and saved it as ‘book’.

## install.packages("gutenbergr")
library(gutenbergr)
library(stringr)
gutenberg_metadata

# A tibble: 72,569 × 8
   gutenberg_id title    author gutenberg_author_id language gutenberg_bookshelf
          <int> <chr>    <chr>                <int> <chr>    <chr>              
 1            1 "The De… Jeffe…                1638 en       "Politics/American…
 2            2 "The Un… Unite…                   1 en       "Politics/American…
 3            3 "John F… Kenne…                1666 en       ""                 
 4            4 "Lincol… Linco…                   3 en       "US Civil War"     
 5            5 "The Un… Unite…                   1 en       "United States/Pol…
 6            6 "Give M… Henry…                   4 en       "American Revoluti…
 7            7 "The Ma… <NA>                    NA en       ""                 
 8            8 "Abraha… Linco…                   3 en       "US Civil War"     
 9            9 "Abraha… Linco…                   3 en       "US Civil War"     
10           10 "The Ki… <NA>                    NA en       "Banned Books List…
# ℹ 72,559 more rows
# ℹ 2 more variables: rights <chr>, has_text <lgl>
…
